{
	"authors": [ "pi" ],
	"configurations": [
		{
			"name": "library",
			"targetType": "library"
		}
	],
	"copyright": "Public Domain",
	"description": "bcm2835 hooks",
	"license": "Public Domain",
	"name": "bcm2835",
	"importPaths": [ "."],
	"sourcePaths": [ "."],
	"targetType": "library",
	"version": "0.0.4"
}
